START CRON cron_upd_product.phpPHP Notice:  Undefined index: SERVER_NAME in /data/www/sites/BRD/BRD_SOUTIEN_SCO/preprod.soutien.editions-bordas.fr/lib/database/mysql.class.php on line 343
PHP Warning:  file_get_contents(): http:// wrapper is disabled in the server configuration by allow_url_fopen=0 in /data/www/sites/BRD/BRD_SOUTIEN_SCO/preprod.soutien.editions-bordas.fr/cron/cron_upd_product.php on line 74
PHP Warning:  file_get_contents(http://extranet.editis.com/it-yonixweb/webcc/sej_bordas_bss/resultat_reference.xml?F_date_maj_ref_debut=01/09/2015): failed to open stream: no suitable wrapper could be found in /data/www/sites/BRD/BRD_SOUTIEN_SCO/preprod.soutien.editions-bordas.fr/cron/cron_upd_product.php on line 74
PHP Fatal error:  Uncaught exception 'Exception' with message 'String could not be parsed as XML' in /data/www/sites/BRD/BRD_SOUTIEN_SCO/preprod.soutien.editions-bordas.fr/cron/cron_upd_product.php:78
Stack trace:
#0 /data/www/sites/BRD/BRD_SOUTIEN_SCO/preprod.soutien.editions-bordas.fr/cron/cron_upd_product.php(78): SimpleXMLElement->__construct('')
#1 {main}
  thrown in /data/www/sites/BRD/BRD_SOUTIEN_SCO/preprod.soutien.editions-bordas.fr/cron/cron_upd_product.php on line 78
